id,0,1
0,0.22,0.78
1,0.22,0.78
2,0.22,0.78
3,0.22,0.78
4,0.22,0.78
5,0.22,0.78
6,0.22,0.78
7,0.22,0.78
8,0.22,0.78
9,0.22,0.78
10,0.22,0.78
11,0.22,0.78
12,0.22,0.78
13,0.22,0.78
14,0.22,0.78
15,0.22,0.78
16,0.22,0.78
17,0.22,0.78
18,0.22,0.78
19,0.22,0.78
20,0.22,0.78
21,0.22,0.78
22,0.22,0.78
23,0.22,0.78
24,0.22,0.78
25,0.22,0.78
26,0.22,0.78
27,0.22,0.78
28,0.22,0.78
29,0.22,0.78
30,0.22,0.78
31,0.22,0.78
32,0.22,0.78
33,0.22,0.78
34,0.22,0.78
35,0.22,0.78
36,0.22,0.78
37,0.22,0.78
38,0.22,0.78
39,0.22,0.78
40,0.22,0.78
41,0.22,0.78
42,0.22,0.78
43,0.22,0.78
44,0.22,0.78
45,0.22,0.78
46,0.22,0.78
47,0.22,0.78
48,0.22,0.78
49,0.22,0.78
50,0.22,0.78
51,0.22,0.78
52,0.22,0.78
53,0.22,0.78
54,0.22,0.78
55,0.22,0.78
56,0.22,0.78
57,0.22,0.78
58,0.22,0.78
59,0.22,0.78
60,0.22,0.78
61,0.22,0.78
62,0.22,0.78
63,0.22,0.78
64,0.22,0.78
65,0.22,0.78
66,0.22,0.78
67,0.22,0.78
68,0.22,0.78
69,0.22,0.78
70,0.22,0.78
71,0.22,0.78
72,0.22,0.78
73,0.22,0.78
74,0.22,0.78
75,0.22,0.78
76,0.22,0.78
77,0.22,0.78
78,0.22,0.78
79,0.22,0.78
80,0.22,0.78
81,0.22,0.78
82,0.22,0.78
83,0.22,0.78
84,0.22,0.78
85,0.22,0.78
86,0.22,0.78
87,0.22,0.78
88,0.22,0.78
89,0.22,0.78
90,0.22,0.78
91,0.22,0.78
92,0.22,0.78
93,0.22,0.78
94,0.22,0.78
95,0.22,0.78
96,0.22,0.78
97,0.22,0.78
98,0.22,0.78
99,0.22,0.78
100,0.22,0.78
101,0.22,0.78
102,0.22,0.78
103,0.22,0.78
104,0.22,0.78
105,0.22,0.78
106,0.22,0.78
107,0.22,0.78
108,0.22,0.78
109,0.22,0.78
110,0.22,0.78
111,0.22,0.78
112,0.22,0.78
113,0.22,0.78
114,0.22,0.78
115,0.22,0.78
116,0.22,0.78
117,0.22,0.78
118,0.22,0.78
119,0.22,0.78
120,0.22,0.78
121,0.22,0.78
122,0.22,0.78
123,0.22,0.78
124,0.22,0.78
125,0.22,0.78
126,0.22,0.78
127,0.22,0.78
128,0.22,0.78
129,0.22,0.78
130,0.22,0.78
131,0.22,0.78
132,0.22,0.78
133,0.22,0.78
134,0.22,0.78
135,0.22,0.78
136,0.22,0.78
137,0.22,0.78
138,0.22,0.78
139,0.22,0.78
140,0.22,0.78
141,0.22,0.78
142,0.22,0.78
143,0.22,0.78
144,0.22,0.78
145,0.22,0.78
146,0.22,0.78
147,0.22,0.78
148,0.22,0.78
149,0.22,0.78
150,0.22,0.78
151,0.22,0.78
152,0.22,0.78
153,0.22,0.78
154,0.22,0.78
155,0.22,0.78
156,0.22,0.78
157,0.22,0.78
158,0.22,0.78
159,0.22,0.78
160,0.22,0.78
161,0.22,0.78
162,0.22,0.78
163,0.22,0.78
164,0.22,0.78
165,0.22,0.78
166,0.22,0.78
167,0.22,0.78
168,0.22,0.78
169,0.22,0.78
170,0.22,0.78
171,0.22,0.78
172,0.22,0.78
173,0.22,0.78
174,0.22,0.78
175,0.22,0.78
176,0.22,0.78
177,0.22,0.78
178,0.22,0.78
179,0.22,0.78
180,0.22,0.78
181,0.22,0.78
182,0.22,0.78
183,0.22,0.78
184,0.22,0.78
185,0.22,0.78
186,0.22,0.78
187,0.22,0.78
188,0.22,0.78
189,0.22,0.78
190,0.22,0.78
191,0.22,0.78
192,0.22,0.78
193,0.22,0.78
194,0.22,0.78
195,0.22,0.78
196,0.22,0.78
197,0.22,0.78
198,0.22,0.78
199,0.22,0.78
200,0.22,0.78
201,0.22,0.78
202,0.22,0.78
203,0.22,0.78
204,0.22,0.78
205,0.22,0.78
206,0.22,0.78
207,0.22,0.78
208,0.22,0.78
209,0.22,0.78
210,0.22,0.78
211,0.22,0.78
212,0.22,0.78
213,0.22,0.78
214,0.22,0.78
215,0.22,0.78
216,0.22,0.78
217,0.22,0.78
218,0.22,0.78
219,0.22,0.78
220,0.22,0.78
221,0.22,0.78
222,0.22,0.78
223,0.22,0.78
224,0.22,0.78
225,0.22,0.78
226,0.22,0.78
227,0.22,0.78
228,0.22,0.78
229,0.22,0.78
230,0.22,0.78
231,0.22,0.78
232,0.22,0.78
233,0.22,0.78
234,0.22,0.78
235,0.22,0.78
236,0.22,0.78
237,0.22,0.78
238,0.22,0.78
239,0.22,0.78
240,0.22,0.78
241,0.22,0.78
242,0.22,0.78
243,0.22,0.78
244,0.22,0.78
245,0.22,0.78
246,0.22,0.78
247,0.22,0.78
248,0.22,0.78
249,0.22,0.78
250,0.22,0.78
251,0.22,0.78
252,0.22,0.78
253,0.22,0.78
254,0.22,0.78
255,0.22,0.78
256,0.22,0.78
257,0.22,0.78
258,0.22,0.78
259,0.22,0.78
260,0.22,0.78
261,0.22,0.78
262,0.22,0.78
263,0.22,0.78
264,0.22,0.78
265,0.22,0.78
266,0.22,0.78
267,0.22,0.78
268,0.22,0.78
269,0.22,0.78
270,0.22,0.78
271,0.22,0.78
272,0.22,0.78
273,0.22,0.78
274,0.22,0.78
275,0.22,0.78
276,0.22,0.78
277,0.22,0.78
278,0.22,0.78
279,0.22,0.78
280,0.22,0.78
281,0.22,0.78
282,0.22,0.78
283,0.22,0.78
284,0.22,0.78
285,0.22,0.78
286,0.22,0.78
287,0.22,0.78
288,0.22,0.78
289,0.22,0.78
290,0.22,0.78
291,0.22,0.78
292,0.22,0.78
293,0.22,0.78
294,0.22,0.78
295,0.22,0.78
296,0.22,0.78
297,0.22,0.78
298,0.22,0.78
299,0.22,0.78
300,0.22,0.78
301,0.22,0.78
302,0.22,0.78
303,0.22,0.78
304,0.22,0.78
305,0.22,0.78
306,0.22,0.78
307,0.22,0.78
308,0.22,0.78
309,0.22,0.78
310,0.22,0.78
311,0.22,0.78
312,0.22,0.78
313,0.22,0.78
314,0.22,0.78
315,0.22,0.78
316,0.22,0.78
317,0.22,0.78
318,0.22,0.78
319,0.22,0.78
320,0.22,0.78
321,0.22,0.78
322,0.22,0.78
323,0.22,0.78
324,0.22,0.78
325,0.22,0.78
326,0.22,0.78
327,0.22,0.78
328,0.22,0.78
329,0.22,0.78
330,0.22,0.78
331,0.22,0.78
332,0.22,0.78
333,0.22,0.78
334,0.22,0.78
335,0.22,0.78
336,0.22,0.78
337,0.22,0.78
338,0.22,0.78
339,0.22,0.78
340,0.22,0.78
341,0.22,0.78
342,0.22,0.78
343,0.22,0.78
344,0.22,0.78
345,0.22,0.78
346,0.22,0.78
347,0.22,0.78
348,0.22,0.78
349,0.22,0.78
350,0.22,0.78
351,0.22,0.78
352,0.22,0.78
353,0.22,0.78
354,0.22,0.78
355,0.22,0.78
356,0.22,0.78
357,0.22,0.78
358,0.22,0.78
359,0.22,0.78
360,0.22,0.78
361,0.22,0.78
362,0.22,0.78
363,0.22,0.78
364,0.22,0.78
365,0.22,0.78
366,0.22,0.78
367,0.22,0.78
368,0.22,0.78
369,0.22,0.78
370,0.22,0.78
371,0.22,0.78
372,0.22,0.78
373,0.22,0.78
374,0.22,0.78
375,0.22,0.78
376,0.22,0.78
377,0.22,0.78
378,0.22,0.78
379,0.22,0.78
380,0.22,0.78
381,0.22,0.78
382,0.22,0.78
383,0.22,0.78
384,0.22,0.78
385,0.22,0.78
386,0.22,0.78
387,0.22,0.78
388,0.22,0.78
389,0.22,0.78
390,0.22,0.78
391,0.22,0.78
392,0.22,0.78
393,0.22,0.78
394,0.22,0.78
395,0.22,0.78
396,0.22,0.78
397,0.22,0.78
398,0.22,0.78
399,0.22,0.78
400,0.22,0.78
401,0.22,0.78
402,0.22,0.78
403,0.22,0.78
404,0.22,0.78
405,0.22,0.78
406,0.22,0.78
407,0.22,0.78
408,0.22,0.78
409,0.22,0.78
410,0.22,0.78
411,0.22,0.78
412,0.22,0.78
413,0.22,0.78
414,0.22,0.78
415,0.22,0.78
416,0.22,0.78
417,0.22,0.78
418,0.22,0.78
419,0.22,0.78
420,0.22,0.78
421,0.22,0.78
422,0.22,0.78
423,0.22,0.78
424,0.22,0.78
425,0.22,0.78
426,0.22,0.78
427,0.22,0.78
428,0.22,0.78
429,0.22,0.78
430,0.22,0.78
431,0.22,0.78
432,0.22,0.78
433,0.22,0.78
434,0.22,0.78
435,0.22,0.78
436,0.22,0.78
437,0.22,0.78
438,0.22,0.78
439,0.22,0.78
440,0.22,0.78
441,0.22,0.78
442,0.22,0.78
443,0.22,0.78
444,0.22,0.78
445,0.22,0.78
446,0.22,0.78
447,0.22,0.78
448,0.22,0.78
449,0.22,0.78
450,0.22,0.78
451,0.22,0.78
452,0.22,0.78
453,0.22,0.78
454,0.22,0.78
455,0.22,0.78
456,0.22,0.78
457,0.22,0.78
458,0.22,0.78
459,0.22,0.78
460,0.22,0.78
461,0.22,0.78
462,0.22,0.78
463,0.22,0.78
464,0.22,0.78
465,0.22,0.78
466,0.22,0.78
467,0.22,0.78
468,0.22,0.78
469,0.22,0.78
470,0.22,0.78
471,0.22,0.78
472,0.22,0.78
473,0.22,0.78
474,0.22,0.78
475,0.22,0.78
476,0.22,0.78
477,0.22,0.78
478,0.22,0.78
479,0.22,0.78
480,0.22,0.78
481,0.22,0.78
482,0.22,0.78
483,0.22,0.78
484,0.22,0.78
485,0.22,0.78
486,0.22,0.78
487,0.22,0.78
488,0.22,0.78
489,0.22,0.78
490,0.22,0.78
491,0.22,0.78
492,0.22,0.78
493,0.22,0.78
494,0.22,0.78
495,0.22,0.78
496,0.22,0.78
497,0.22,0.78
498,0.22,0.78
499,0.22,0.78
500,0.22,0.78
501,0.22,0.78
502,0.22,0.78
503,0.22,0.78
504,0.22,0.78
505,0.22,0.78
506,0.22,0.78
507,0.22,0.78
508,0.22,0.78
509,0.22,0.78
510,0.22,0.78
511,0.22,0.78
512,0.22,0.78
513,0.22,0.78
514,0.22,0.78
515,0.22,0.78
516,0.22,0.78
517,0.22,0.78
518,0.22,0.78
519,0.22,0.78
520,0.22,0.78
521,0.22,0.78
522,0.22,0.78
523,0.22,0.78
524,0.22,0.78
525,0.22,0.78
526,0.22,0.78
527,0.22,0.78
528,0.22,0.78
529,0.22,0.78
530,0.22,0.78
531,0.22,0.78
532,0.22,0.78
533,0.22,0.78
534,0.22,0.78
535,0.22,0.78
536,0.22,0.78
537,0.22,0.78
538,0.22,0.78
539,0.22,0.78
540,0.22,0.78
541,0.22,0.78
542,0.22,0.78
543,0.22,0.78
544,0.22,0.78
545,0.22,0.78
546,0.22,0.78
547,0.22,0.78
548,0.22,0.78
549,0.22,0.78
550,0.22,0.78
551,0.22,0.78
552,0.22,0.78
553,0.22,0.78
554,0.22,0.78
555,0.22,0.78
556,0.22,0.78
557,0.22,0.78
558,0.22,0.78
559,0.22,0.78
560,0.22,0.78
561,0.22,0.78
562,0.22,0.78
563,0.22,0.78
564,0.22,0.78
565,0.22,0.78
566,0.22,0.78
567,0.22,0.78
568,0.22,0.78
569,0.22,0.78
570,0.22,0.78
571,0.22,0.78
572,0.22,0.78
573,0.22,0.78
574,0.22,0.78
575,0.22,0.78
576,0.22,0.78
577,0.22,0.78
578,0.22,0.78
579,0.22,0.78
580,0.22,0.78
581,0.22,0.78
582,0.22,0.78
583,0.22,0.78
584,0.22,0.78
585,0.22,0.78
586,0.22,0.78
587,0.22,0.78
588,0.22,0.78
589,0.22,0.78
590,0.22,0.78
591,0.22,0.78
592,0.22,0.78
593,0.22,0.78
594,0.22,0.78
595,0.22,0.78
596,0.22,0.78
597,0.22,0.78
598,0.22,0.78
599,0.22,0.78
600,0.22,0.78
601,0.22,0.78
602,0.22,0.78
603,0.22,0.78
604,0.22,0.78
605,0.22,0.78
606,0.22,0.78
607,0.22,0.78
608,0.22,0.78
609,0.22,0.78
610,0.22,0.78
611,0.22,0.78
612,0.22,0.78
613,0.22,0.78
614,0.22,0.78
615,0.22,0.78
616,0.22,0.78
617,0.22,0.78
618,0.22,0.78
619,0.22,0.78
620,0.22,0.78
621,0.22,0.78
622,0.22,0.78
623,0.22,0.78
624,0.22,0.78
625,0.22,0.78
626,0.22,0.78
627,0.22,0.78
628,0.22,0.78
629,0.22,0.78
630,0.22,0.78
631,0.22,0.78
632,0.22,0.78
633,0.22,0.78
634,0.22,0.78
635,0.22,0.78
636,0.22,0.78
637,0.22,0.78
638,0.22,0.78
639,0.22,0.78
640,0.22,0.78
641,0.22,0.78
642,0.22,0.78
643,0.22,0.78
644,0.22,0.78
645,0.22,0.78
646,0.22,0.78
647,0.22,0.78
648,0.22,0.78
649,0.22,0.78
650,0.22,0.78
651,0.22,0.78
652,0.22,0.78
653,0.22,0.78
654,0.22,0.78
655,0.22,0.78
656,0.22,0.78
657,0.22,0.78
658,0.22,0.78
659,0.22,0.78
660,0.22,0.78
661,0.22,0.78
662,0.22,0.78
663,0.22,0.78
664,0.22,0.78
665,0.22,0.78
666,0.22,0.78
667,0.22,0.78
668,0.22,0.78
669,0.22,0.78
670,0.22,0.78
671,0.22,0.78
672,0.22,0.78
673,0.22,0.78
674,0.22,0.78
675,0.22,0.78
676,0.22,0.78
677,0.22,0.78
678,0.22,0.78
679,0.22,0.78
680,0.22,0.78
681,0.22,0.78
682,0.22,0.78
683,0.22,0.78
684,0.22,0.78
685,0.22,0.78
686,0.22,0.78
687,0.22,0.78
688,0.22,0.78
689,0.22,0.78
690,0.22,0.78
691,0.22,0.78
692,0.22,0.78
693,0.22,0.78
694,0.22,0.78
695,0.22,0.78
696,0.22,0.78
697,0.22,0.78
698,0.22,0.78
699,0.22,0.78
700,0.22,0.78
701,0.22,0.78
702,0.22,0.78
703,0.22,0.78
704,0.22,0.78
705,0.22,0.78
706,0.22,0.78
707,0.22,0.78
708,0.22,0.78
709,0.22,0.78
710,0.22,0.78
711,0.22,0.78
712,0.22,0.78
713,0.22,0.78
714,0.22,0.78
715,0.22,0.78
716,0.22,0.78
717,0.22,0.78
718,0.22,0.78
719,0.22,0.78
720,0.22,0.78
721,0.22,0.78
722,0.22,0.78
723,0.22,0.78
724,0.22,0.78
725,0.22,0.78
726,0.22,0.78
727,0.22,0.78
728,0.22,0.78
729,0.22,0.78
730,0.22,0.78
731,0.22,0.78
732,0.22,0.78
733,0.22,0.78
734,0.22,0.78
735,0.22,0.78
736,0.22,0.78
737,0.22,0.78
738,0.22,0.78
739,0.22,0.78
740,0.22,0.78
741,0.22,0.78
742,0.22,0.78
743,0.22,0.78
744,0.22,0.78
745,0.22,0.78
746,0.22,0.78
747,0.22,0.78
748,0.22,0.78
749,0.22,0.78
750,0.22,0.78
751,0.22,0.78
752,0.22,0.78
753,0.22,0.78
754,0.22,0.78
755,0.22,0.78
756,0.22,0.78
757,0.22,0.78
758,0.22,0.78
759,0.22,0.78
760,0.22,0.78
761,0.22,0.78
762,0.22,0.78
763,0.22,0.78
764,0.22,0.78
765,0.22,0.78
766,0.22,0.78
767,0.22,0.78
768,0.22,0.78
769,0.22,0.78
770,0.22,0.78
771,0.22,0.78
772,0.22,0.78
773,0.22,0.78
774,0.22,0.78
775,0.22,0.78
776,0.22,0.78
777,0.22,0.78
778,0.22,0.78
779,0.22,0.78
780,0.22,0.78
781,0.22,0.78
782,0.22,0.78
783,0.22,0.78
784,0.22,0.78
785,0.22,0.78
786,0.22,0.78
787,0.22,0.78
788,0.22,0.78
789,0.22,0.78
790,0.22,0.78
791,0.22,0.78
792,0.22,0.78
793,0.22,0.78
794,0.22,0.78
795,0.22,0.78
796,0.22,0.78
797,0.22,0.78
798,0.22,0.78
799,0.22,0.78
800,0.22,0.78
801,0.22,0.78
802,0.22,0.78
803,0.22,0.78
804,0.22,0.78
805,0.22,0.78
806,0.22,0.78
807,0.22,0.78
808,0.22,0.78
809,0.22,0.78
810,0.22,0.78
811,0.22,0.78
812,0.22,0.78
813,0.22,0.78
814,0.22,0.78
815,0.22,0.78
816,0.22,0.78
817,0.22,0.78
818,0.22,0.78
819,0.22,0.78
820,0.22,0.78
821,0.22,0.78
822,0.22,0.78
823,0.22,0.78
824,0.22,0.78
825,0.22,0.78
826,0.22,0.78
827,0.22,0.78
828,0.22,0.78
829,0.22,0.78
830,0.22,0.78
831,0.22,0.78
832,0.22,0.78
833,0.22,0.78
834,0.22,0.78
835,0.22,0.78
836,0.22,0.78
837,0.22,0.78
838,0.22,0.78
839,0.22,0.78
840,0.22,0.78
841,0.22,0.78
842,0.22,0.78
843,0.22,0.78
844,0.22,0.78
845,0.22,0.78
846,0.22,0.78
847,0.22,0.78
848,0.22,0.78
849,0.22,0.78
850,0.22,0.78
851,0.22,0.78
852,0.22,0.78
853,0.22,0.78
854,0.22,0.78
855,0.22,0.78
856,0.22,0.78
857,0.22,0.78
858,0.22,0.78
859,0.22,0.78
860,0.22,0.78
861,0.22,0.78
862,0.22,0.78
863,0.22,0.78
864,0.22,0.78
865,0.22,0.78
866,0.22,0.78
867,0.22,0.78
868,0.22,0.78
869,0.22,0.78
870,0.22,0.78
871,0.22,0.78
872,0.22,0.78
873,0.22,0.78
874,0.22,0.78
875,0.22,0.78
876,0.22,0.78
877,0.22,0.78
878,0.22,0.78
879,0.22,0.78
880,0.22,0.78
881,0.22,0.78
882,0.22,0.78
883,0.22,0.78
884,0.22,0.78
885,0.22,0.78
886,0.22,0.78
887,0.22,0.78
888,0.22,0.78
889,0.22,0.78
890,0.22,0.78
891,0.22,0.78
892,0.22,0.78
893,0.22,0.78
894,0.22,0.78
895,0.22,0.78
896,0.22,0.78
897,0.22,0.78
898,0.22,0.78
899,0.22,0.78
900,0.22,0.78
901,0.22,0.78
902,0.22,0.78
903,0.22,0.78
904,0.22,0.78
905,0.22,0.78
906,0.22,0.78
907,0.22,0.78
908,0.22,0.78
909,0.22,0.78
910,0.22,0.78
911,0.22,0.78
912,0.22,0.78
913,0.22,0.78
914,0.22,0.78
915,0.22,0.78
916,0.22,0.78
917,0.22,0.78
918,0.22,0.78
919,0.22,0.78
920,0.22,0.78
921,0.22,0.78
922,0.22,0.78
923,0.22,0.78
924,0.22,0.78
925,0.22,0.78
926,0.22,0.78
927,0.22,0.78
928,0.22,0.78
929,0.22,0.78
930,0.22,0.78
931,0.22,0.78
932,0.22,0.78
933,0.22,0.78
934,0.22,0.78
935,0.22,0.78
936,0.22,0.78
937,0.22,0.78
938,0.22,0.78
939,0.22,0.78
940,0.22,0.78
941,0.22,0.78
942,0.22,0.78
943,0.22,0.78
944,0.22,0.78
945,0.22,0.78
946,0.22,0.78
947,0.22,0.78
948,0.22,0.78
949,0.22,0.78
950,0.22,0.78
951,0.22,0.78
952,0.22,0.78
953,0.22,0.78
954,0.22,0.78
955,0.22,0.78
956,0.22,0.78
957,0.22,0.78
958,0.22,0.78
959,0.22,0.78
960,0.22,0.78
961,0.22,0.78
962,0.22,0.78
963,0.22,0.78
964,0.22,0.78
965,0.22,0.78
966,0.22,0.78
967,0.22,0.78
968,0.22,0.78
969,0.22,0.78
970,0.22,0.78
971,0.22,0.78
972,0.22,0.78
973,0.22,0.78
974,0.22,0.78
975,0.22,0.78
976,0.22,0.78
977,0.22,0.78
978,0.22,0.78
979,0.22,0.78
980,0.22,0.78
981,0.22,0.78
982,0.22,0.78
983,0.22,0.78
984,0.22,0.78
985,0.22,0.78
986,0.22,0.78
987,0.22,0.78
988,0.22,0.78
989,0.22,0.78
990,0.22,0.78
991,0.22,0.78
992,0.22,0.78
993,0.22,0.78
994,0.22,0.78
995,0.22,0.78
996,0.22,0.78
997,0.22,0.78
998,0.22,0.78
999,0.22,0.78
